{
  "project_info": {
    "project_number": "272367473833",
    "project_id": "aop-part3-chapter01-77f4a",
    "storage_bucket": "aop-part3-chapter01-77f4a.appspot.com"
  },
  "client": [
    {
      "client_info": {
        "mobilesdk_app_id": "1:272367473833:android:3985af9d2cee569aff05b8",
        "android_client_info": {
          "package_name": "com.example.aop_part3_chapter01"
        }
      },
      "oauth_client": [
        {
          "client_id": "272367473833-2dt7tsiq115tokmh9ijf7vng2qa3833p.apps.googleusercontent.com",
          "client_type": 3
        }
      ],
      "api_key": [
        {
          "current_key": "AIzaSyB9sqRKfLJaXhegE6csZwPaxI6HJKPljnU"
        }
      ],
      "services": {
        "appinvite_service": {
          "other_platform_oauth_client": [
            {
              "client_id": "272367473833-2dt7tsiq115tokmh9ijf7vng2qa3833p.apps.googleusercontent.com",
              "client_type": 3
            }
          ]
        }
      }
    }
  ],
  "configuration_version": "1"
}